{
  "data": {
    "id": "f56a2097-eb03-4db7-bae0-135ed69de3f8",
    "type": "entity_form_display--entity_form_display",
    "attributes": {
      "content": {
        "body": {
          "type": "text_textarea",
          "third_party_settings": {},
          "settings": {
            "rows": 10,
            "placeholder": "Enter value"
          },
          "weight": 0,
          "region": "content"
        }
      }
    }
  }
}
