{
  "sections": {
    "layout_onecol": {
      "id": "layout_onecol",
      "label": "One column",
      "icon": "\u003Csvg width=\u002260\u0022 height=\u002280\u0022 class=\u0022layout-icon layout-icon--layout-onecol\u0022\u003E\u003Ctitle\u003EOne column\u003C/title\u003E\n\u003Cg\u003E\u003Ctitle\u003Econtent\u003C/title\u003E\n\u003Crect x=\u00220.5\u0022 y=\u00220.5\u0022 width=\u002259\u0022 height=\u002279\u0022 stroke-width=\u00221\u0022 class=\u0022layout-icon__region layout-icon__region--content\u0022 /\u003E\n\u003C/g\u003E\n\u003C/svg\u003E\n",
      "icon_is_url": false,
      "region_labels": {
        "content": "Content"
      }
    },
    "layout_twocol_section": {
      "id": "layout_twocol_section",
      "label": "Two column",
      "icon": "\u003Csvg width=\u002260\u0022 height=\u002280\u0022 class=\u0022layout-icon layout-icon--layout-twocol-section\u0022\u003E\u003Ctitle\u003ETwo column\u003C/title\u003E\n\u003Cg\u003E\u003Ctitle\u003Efirst\u003C/title\u003E\n\u003Crect x=\u00220.5\u0022 y=\u00220.5\u0022 width=\u002227.5\u0022 height=\u002279\u0022 stroke-width=\u00221\u0022 class=\u0022layout-icon__region layout-icon__region--first\u0022 /\u003E\n\u003C/g\u003E\n\u003Cg\u003E\u003Ctitle\u003Esecond\u003C/title\u003E\n\u003Crect x=\u002232\u0022 y=\u00220.5\u0022 width=\u002227.5\u0022 height=\u002279\u0022 stroke-width=\u00221\u0022 class=\u0022layout-icon__region layout-icon__region--second\u0022 /\u003E\n\u003C/g\u003E\n\u003C/svg\u003E\n",
      "icon_is_url": false,
      "region_labels": {
        "first": "First",
        "second": "Second"
      }
    },
    "layout_threecol_section": {
      "id": "layout_threecol_section",
      "label": "Three column",
      "icon": "\u003Csvg width=\u002260\u0022 height=\u002280\u0022 class=\u0022layout-icon layout-icon--layout-threecol-section\u0022\u003E\u003Ctitle\u003EThree column\u003C/title\u003E\n\u003Cg\u003E\u003Ctitle\u003Efirst\u003C/title\u003E\n\u003Crect x=\u00220.5\u0022 y=\u00220.5\u0022 width=\u002217\u0022 height=\u002279\u0022 stroke-width=\u00221\u0022 class=\u0022layout-icon__region layout-icon__region--first\u0022 /\u003E\n\u003C/g\u003E\n\u003Cg\u003E\u003Ctitle\u003Esecond\u003C/title\u003E\n\u003Crect x=\u002221.5\u0022 y=\u00220.5\u0022 width=\u002217\u0022 height=\u002279\u0022 stroke-width=\u00221\u0022 class=\u0022layout-icon__region layout-icon__region--second\u0022 /\u003E\n\u003C/g\u003E\n\u003Cg\u003E\u003Ctitle\u003Ethird\u003C/title\u003E\n\u003Crect x=\u002242.5\u0022 y=\u00220.5\u0022 width=\u002217\u0022 height=\u002279\u0022 stroke-width=\u00221\u0022 class=\u0022layout-icon__region layout-icon__region--third\u0022 /\u003E\n\u003C/g\u003E\n\u003C/svg\u003E\n",
      "icon_is_url": false,
      "region_labels": {
        "first": "First",
        "second": "Second",
        "third": "Third"
      }
    },
    "layout_fourcol_section": {
      "id": "layout_fourcol_section",
      "label": "Four column",
      "icon": "\u003Csvg width=\u002260\u0022 height=\u002280\u0022 class=\u0022layout-icon layout-icon--layout-fourcol-section\u0022\u003E\u003Ctitle\u003EFour column\u003C/title\u003E\n\u003Cg\u003E\u003Ctitle\u003Efirst\u003C/title\u003E\n\u003Crect x=\u00220.5\u0022 y=\u00220.5\u0022 width=\u002211.75\u0022 height=\u002279\u0022 stroke-width=\u00221\u0022 class=\u0022layout-icon__region layout-icon__region--first\u0022 /\u003E\n\u003C/g\u003E\n\u003Cg\u003E\u003Ctitle\u003Esecond\u003C/title\u003E\n\u003Crect x=\u002216.25\u0022 y=\u00220.5\u0022 width=\u002211.75\u0022 height=\u002279\u0022 stroke-width=\u00221\u0022 class=\u0022layout-icon__region layout-icon__region--second\u0022 /\u003E\n\u003C/g\u003E\n\u003Cg\u003E\u003Ctitle\u003Ethird\u003C/title\u003E\n\u003Crect x=\u002232\u0022 y=\u00220.5\u0022 width=\u002211.75\u0022 height=\u002279\u0022 stroke-width=\u00221\u0022 class=\u0022layout-icon__region layout-icon__region--third\u0022 /\u003E\n\u003C/g\u003E\n\u003Cg\u003E\u003Ctitle\u003Efourth\u003C/title\u003E\n\u003Crect x=\u002247.75\u0022 y=\u00220.5\u0022 width=\u002211.75\u0022 height=\u002279\u0022 stroke-width=\u00221\u0022 class=\u0022layout-icon__region layout-icon__region--fourth\u0022 /\u003E\n\u003C/g\u003E\n\u003C/svg\u003E\n",
      "icon_is_url": false,
      "region_labels": {
        "first": "First",
        "second": "Second",
        "third": "Third",
        "fourth": "Fourth"
      }
    },
    "layout_oneplusfourgrid_section": {
      "id": "layout_oneplusfourgrid_section",
      "label": "One plus four grid",
      "icon": "\u003Csvg width=\u002260\u0022 height=\u002280\u0022 class=\u0022layout-icon layout-icon--layout-oneplusfourgrid-section\u0022\u003E\u003Ctitle\u003EOne plus four grid\u003C/title\u003E\n\u003Cg\u003E\u003Ctitle\u003Efirst\u003C/title\u003E\n\u003Crect x=\u00220.5\u0022 y=\u00220.5\u0022 width=\u002217\u0022 height=\u002279\u0022 stroke-width=\u00221\u0022 class=\u0022layout-icon__region layout-icon__region--first\u0022 /\u003E\n\u003C/g\u003E\n\u003Cg\u003E\u003Ctitle\u003Esecond\u003C/title\u003E\n\u003Crect x=\u002221.5\u0022 y=\u00220.5\u0022 width=\u002217\u0022 height=\u002237.5\u0022 stroke-width=\u00221\u0022 class=\u0022layout-icon__region layout-icon__region--second\u0022 /\u003E\n\u003C/g\u003E\n\u003Cg\u003E\u003Ctitle\u003Ethird\u003C/title\u003E\n\u003Crect x=\u002242.5\u0022 y=\u00220.5\u0022 width=\u002217\u0022 height=\u002237.5\u0022 stroke-width=\u00221\u0022 class=\u0022layout-icon__region layout-icon__region--third\u0022 /\u003E\n\u003C/g\u003E\n\u003Cg\u003E\u003Ctitle\u003Efourth\u003C/title\u003E\n\u003Crect x=\u002221.5\u0022 y=\u002242\u0022 width=\u002217\u0022 height=\u002237.5\u0022 stroke-width=\u00221\u0022 class=\u0022layout-icon__region layout-icon__region--fourth\u0022 /\u003E\n\u003C/g\u003E\n\u003Cg\u003E\u003Ctitle\u003Efifth\u003C/title\u003E\n\u003Crect x=\u002242.5\u0022 y=\u002242\u0022 width=\u002217\u0022 height=\u002237.5\u0022 stroke-width=\u00221\u0022 class=\u0022layout-icon__region layout-icon__region--fifth\u0022 /\u003E\n\u003C/g\u003E\n\u003C/svg\u003E\n",
      "icon_is_url": false,
      "region_labels": {
        "first": "First",
        "second": "Second",
        "third": "Third",
        "fourth": "Fourth",
        "fifth": "Fifth"
      }
    }
  }
}
